﻿<?xml version="1.0" encoding="UTF-8"?>
<TestRun id="796c319d-9c0a-4a6c-90ce-4cafe1f891d3" name="mmishkoff@MLAPTOP 2010-04-21 21:03:19" runUser="MLaptop\mmishkoff" xmlns="http://microsoft.com/schemas/VisualStudio/TeamTest/2006">
  <TestRunConfiguration name="Local Test Run" id="2442b18e-cbe4-4529-843a-0fb46ae72745">
    <Description>This is a default test run configuration for a local test run.</Description>
    <Deployment runDeploymentRoot="C:\Projects\Spark.IPBlocker\TestResults\mmishkoff_MLAPTOP 2010-04-21 21_03_19">
      <DeploymentItem filename="C:\Projects\Spark.IPBlocker\Spark.IPBlocker.Service\bin\Debug\Spark.IPBlocker.Service.dll" />
      <DeploymentItem filename="C:\Projects\Spark.IPBlocker\Spark.IPBlocker.ValueObjects\bin\Debug\Spark.IPBlocker.ValueObjects.dll" />
      <DeploymentItem filename="C:\Projects\Spark.IPBlocker\Spark.IPBlocker.Tests\bin\Debug\Moq.dll" />
      <DeploymentItem filename="C:\Downloads\StructureMap_2.5.3\StructureMapDoctor.exe" />
      <DeploymentItem filename="C:\Projects\Spark.IPBlocker\Spark.IPBlocker.Engine\bin\Debug\Spark.IPBlocker.Engine.dll" />
    </Deployment>
    <TestTypeSpecific />
  </TestRunConfiguration>
  <ResultSummary outcome="Failed">
    <Counters total="1" executed="1" error="0" failed="1" timeout="0" aborted="0" inconclusive="0" passedButRunAborted="0" notRunnable="0" notExecuted="0" disconnected="0" warning="0" passed="0" completed="0" inProgress="0" pending="0" />
  </ResultSummary>
  <Times creation="2010-04-21T21:03:19.5727950-07:00" queuing="2010-04-21T21:03:21.9629317-07:00" start="2010-04-21T21:03:22.1739438-07:00" finish="2010-04-21T21:03:23.6650291-07:00" />
  <TestDefinitions>
    <UnitTest name="testy" storage="c:\projects\spark.ipblocker\spark.ipblocker.tests\bin\debug\spark.ipblocker.tests.dll" id="6d95dcd4-089d-9db8-cbdc-5b815a5a91fc">
      <Css projectStructure="" iteration="" />
      <Owners>
        <Owner name="" />
      </Owners>
      <Execution id="f6a9b0c8-3337-4c44-b434-53d085b4f265" />
      <TestMethod codeBase="C:\Projects\Spark.IPBlocker\Spark.IPBlocker.Tests\bin\Debug\Spark.IPBlocker.Tests.dll" adapterTypeName="Microsoft.VisualStudio.TestTools.TestTypes.Unit.UnitTestAdapter, Microsoft.VisualStudio.QualityTools.Tips.UnitTest.Adapter, Version=9.0.0.0, Culture=neutral, PublicKeyToken=b03f5f7f11d50a3a" className="Spark.IPBlocker.Tests.IPBlockerBLTests, Spark.IPBlocker.Tests" name="testy" />
    </UnitTest>
  </TestDefinitions>
  <TestLists>
    <TestList name="Results Not in a List" id="8c84fa94-04c1-424b-9868-57a2d4851a1d" />
    <TestList name="All Loaded Results" id="19431567-8539-422a-85d7-44ee4e166bda" />
  </TestLists>
  <TestEntries>
    <TestEntry testId="6d95dcd4-089d-9db8-cbdc-5b815a5a91fc" executionId="f6a9b0c8-3337-4c44-b434-53d085b4f265" testListId="8c84fa94-04c1-424b-9868-57a2d4851a1d" />
  </TestEntries>
  <Results>
    <UnitTestResult executionId="f6a9b0c8-3337-4c44-b434-53d085b4f265" testId="6d95dcd4-089d-9db8-cbdc-5b815a5a91fc" testName="testy" computerName="MLAPTOP" duration="00:00:00.8085468" startTime="2010-04-21T21:03:22.2499481-07:00" endTime="2010-04-21T21:03:23.6130261-07:00" testType="13cdc9d9-ddb5-4fa4-a97d-d965ccfc6d4b" outcome="Failed" testListId="8c84fa94-04c1-424b-9868-57a2d4851a1d">
      <Output>
        <ErrorInfo>
          <Message>Test method Spark.IPBlocker.Tests.IPBlockerBLTests.testy threw exception:  System.Data.SqlClient.SqlException: Cannot open database "mnActivityRecording" requested by the login. The login failed.
Login failed for user 'MLaptop\mmishkoff'..</Message>
          <StackTrace>    at Spark.IPBlocker.Engine.BusinessLogic.IPBlockerBL.GetAllCountries(IIPBlockerRepository repository) in C:\Projects\Spark.IPBlocker\Spark.IPBlocker.Engine\BusinessLogic\IPBlockerBL.cs:line 130
   at Spark.IPBlocker.Engine.ServiceManagers.IPBlockerSM.GetAllCountries() in C:\Projects\Spark.IPBlocker\Spark.IPBlocker.Engine\ServiceManagers\IPBlockerSM.cs:line 109
   at Spark.IPBlocker.Service.IPBlockerService.GetAllCountries() in C:\Projects\Spark.IPBlocker\Spark.IPBlocker.Service\IPBlockerService.cs:line 112
   at Spark.IPBlocker.Tests.IPBlockerBLTests.testy() in C:\Projects\Spark.IPBlocker\Spark.IPBlocker.Tests\IPBlockerBLTests.cs:line 433
</StackTrace>
        </ErrorInfo>
      </Output>
    </UnitTestResult>
  </Results>
</TestRun>